**********************
Windows PowerShell transcript start
Start time: 20160705042747
Username: VIACOM_CORP\testone
RunAs User: VIACOM_CORP\testone
Machine: SP2013-DEV-12 (Microsoft Windows NT 6.3.9600.0)
Host Application: C:\Windows\System32\WindowsPowerShell\v1.0\PowerShell.exe -NoExit  & ' C:\Program Files\Common Files\Microsoft Shared\Web Server Extensions\15\CONFIG\POWERSHELL\Registration\\sharepoint.ps1 ' 
Process ID: 21768
**********************
Transcript started, output file is .\Logs\CreateList05Jul2016.log
Sucessfully read config file D:\Asia\V6.0\Asia\configuration\asia\Libraries.xml
 file

List MobileSubscriptions created successfully at web : http://sp2013-dev-12:808
1/sites/mobile/HR
List MobileSubscriptions property updated successfully at web : http://sp2013-d
ev-12:8081/sites/mobile/HR
**********************
Windows PowerShell transcript end
End time: 20160705042756
**********************
